%YAML 1.1
---
'194_44_50_86':
- tyulen00
'188_163_122_45':
- TRITONKOR
'5_58_112_253':
- DoL4iua
- r4yerr
'178_133_37_39':
- 0PasnyTAPOK
'93_44_124_137':
- HolyDevil
'89_209_37_156':
- 0PasnyTAPOK
'5_58_6_140':
- Gavryliuk
- KimCat
'178_93_97_200':
- avatar52525
'178_133_200_250':
- 0PasnyTAPOK
'178_133_193_213':
- 0PasnyTAPOK
'85_255_232_57':
- NaZiViNuS
'94_45_136_1':
- Arak__
'85_255_235_27':
- NaZiViNuS
'178_133_28_61':
- 0PasnyTAPOK
'151_38_40_16':
- HolyDevil
'178_133_44_130':
- 0PasnyTAPOK
'178_133_77_139':
- 0PasnyTAPOK
'128_124_81_151':
- 0PasnyTAPOK
'178_133_140_37':
- 0PasnyTAPOK
'77_236_223_163':
- XxStormLordXx
'37_46_234_48':
- p4f0s
- r4yerr
'188_130_178_243':
- r4yerr
'5_58_76_25':
- Romkoo
'89_209_169_93':
- 0PasnyTAPOK
'31_144_169_68':
- 0PasnyTAPOK
'46_133_135_173':
- 0PasnyTAPOK
'178_133_181_88':
- 0PasnyTAPOK
'178_133_29_244':
- 0PasnyTAPOK
'45_151_237_37':
- KimCat
'91_236_158_60':
- Wel1born
'213_159_243_8':
- Bodya_2005
'194_107_178_255':
- DratGg
'194_44_57_124':
- tyulen00
'176_36_64_46':
- 0PasnyTAPOK
'151_18_199_106':
- HolyDevil
'151_46_20_121':
- HolyDevil
'94_153_210_222':
- pelmenkakulet
'185_69_145_203':
- NaZiViNuS
'5_58_140_100':
- hamAdmiral
'45_158_247_240':
- MartyfonShow
'194_44_209_199':
- NetYelow
'178_133_173_154':
- 0PasnyTAPOK
